<svg xmlns="http://www.w3.org/2000/svg" viewBox="11868 -10433 21 21.39">
  <defs>
    <style>
      .cls-1 {
        fill: #333e48;
      }

      .cls-2 {
        fill: #5e96dc;
      }
    </style>
  </defs>
  <g id="settings_2_" data-name="settings (2)" transform="translate(11865.266 -10433)">
    <path id="Path_651" data-name="Path 651" class="cls-1" d="M3.658,38.841a.924.924,0,0,1,0-1.848L22.8,36.982h0a.924.924,0,0,1,0,1.848l-19.144.011Z" transform="translate(0 -34.341)"/>
    <g id="Group_748" data-name="Group 748" transform="translate(14.645 0)">
      <circle id="Ellipse_415" data-name="Ellipse 415" class="cls-2" cx="3.565" cy="3.565" r="3.565" transform="translate(0.858 0)"/>
    </g>
    <path id="Path_653" data-name="Path 653" class="cls-1" d="M3.767,238.541a.924.924,0,0,1,0-1.848l19.144-.011h0a.924.924,0,0,1,0,1.848l-19.144.011Z" transform="translate(-0.101 -219.783)"/>
    <g id="Group_749" data-name="Group 749" transform="translate(12.607 14.261)">
      <circle id="Ellipse_416" data-name="Ellipse 416" class="cls-2" cx="3.565" cy="3.565" r="3.565" transform="translate(0.858 0)"/>
    </g>
    <path id="Path_655" data-name="Path 655" class="cls-1" d="M3.714,142.136a.924.924,0,0,1,0-1.848l19.144-.011h0a.924.924,0,0,1,0,1.848l-19.144.011Z" transform="translate(-0.052 -130.261)"/>
    <g id="Group_750" data-name="Group 750" transform="translate(5.379 7.382)">
      <circle id="Ellipse_417" data-name="Ellipse 417" class="cls-2" cx="3.565" cy="3.565" r="3.565" transform="translate(0.858)"/>
    </g>
  </g>
</svg>
