<svg xmlns="http://www.w3.org/2000/svg" viewBox="11868 -10606.249 26.8 26.8">
  <defs>
    <style>
      .cls-1 {
        fill: #a4a9ad;
      }

      .cls-2 {
        fill: #333e48;
      }
    </style>
  </defs>
  <g id="settings" transform="translate(11867.999 -10606.249)">
    <path id="Path_542" data-name="Path 542" class="cls-1" d="M26.591,10.994a.639.639,0,0,0-.78-.521L23.517,11a10.331,10.331,0,0,0-1.283-3.08l1.99-1.258a.64.64,0,0,0,.18-.921,9.508,9.508,0,0,0-1.528-1.814,9.793,9.793,0,0,0-1.85-1.553.64.64,0,0,0-.92.183L18.855,4.549a10.333,10.333,0,0,0-3.084-1.273l.518-2.3A.64.64,0,0,0,15.765.2,9.512,9.512,0,0,0,13.4,0a9.793,9.793,0,0,0-2.406.21.64.64,0,0,0-.521.78L11,3.285a10.33,10.33,0,0,0-3.08,1.282L6.661,2.577A.641.641,0,0,0,5.74,2.4,9.523,9.523,0,0,0,3.926,3.925a9.8,9.8,0,0,0-1.553,1.85.64.64,0,0,0,.183.92L4.55,7.946A10.337,10.337,0,0,0,3.277,11.03l-2.3-.518a.64.64,0,0,0-.779.524A9.513,9.513,0,0,0,0,13.4a9.8,9.8,0,0,0,.21,2.406.64.64,0,0,0,.78.521L3.285,15.8a10.331,10.331,0,0,0,1.283,3.08L2.578,20.14a.641.641,0,0,0-.181.921,9.519,9.519,0,0,0,1.529,1.814,9.8,9.8,0,0,0,1.85,1.553.64.64,0,0,0,.92-.183l1.252-1.994a10.332,10.332,0,0,0,3.084,1.273l-.518,2.3a.64.64,0,0,0,.524.779,9.5,9.5,0,0,0,2.364.2,9.8,9.8,0,0,0,2.406-.21.64.64,0,0,0,.521-.78L15.8,23.516a10.336,10.336,0,0,0,3.08-1.282l1.258,1.99a.64.64,0,0,0,.921.181,9.51,9.51,0,0,0,1.814-1.528,9.8,9.8,0,0,0,1.553-1.85.64.64,0,0,0-.183-.92l-1.994-1.252a10.333,10.333,0,0,0,1.273-3.084l2.3.517a.64.64,0,0,0,.779-.524,9.51,9.51,0,0,0,.2-2.363A9.788,9.788,0,0,0,26.591,10.994ZM13.4,16.5a3.1,3.1,0,1,1,3.1-3.1A3.1,3.1,0,0,1,13.4,16.5Z"/>
    <path id="Path_543" data-name="Path 543" class="cls-2" d="M101.222,96.115a5.106,5.106,0,1,0,5.106,5.106A5.106,5.106,0,0,0,101.222,96.115Zm0,8.21a3.1,3.1,0,1,1,3.1-3.1A3.1,3.1,0,0,1,101.222,104.325Z" transform="translate(-87.821 -87.82)"/>
  </g>
</svg>
