<svg id="Group_765" data-name="Group 765" xmlns="http://www.w3.org/2000/svg" viewBox="13794 -11311 81.8 81.8">
  <defs>
    <style>
      .cls-1 {
        fill: #fff;
      }

      .cls-2 {
        fill: none;
      }

      .cls-2, .cls-3 {
        stroke: #656565;
        stroke-width: 4px;
      }

      .cls-3 {
        fill: #333;
      }
    </style>
  </defs>
  <g id="Group_764" data-name="Group 764" transform="translate(11907 -12077)">
    <g id="Group_763" data-name="Group 763" transform="translate(1887 766)">
      <rect id="Rectangle_1906" data-name="Rectangle 1906" class="cls-1" width="81.8" height="81.8"/>
      <path id="Path_362" data-name="Path 362" class="cls-2" d="M-2210.3-13814.4l36.81,37.223" transform="translate(2233.613 13837.301)"/>
    </g>
    <path id="Path_363" data-name="Path 363" class="cls-3" d="M-2172.563-13814.4l-38.037,36" transform="translate(4119.686 14603.301)"/>
  </g>
</svg>
