<svg xmlns="http://www.w3.org/2000/svg" viewBox="14691 -9872.782 13.8 16.782">
  <defs>
    <style>
      .cls-1 {
        fill: #182779;
      }
    </style>
  </defs>
  <g id="delete" transform="translate(14645.505 -9872.782)">
    <g id="Group_673" data-name="Group 673" transform="translate(45.495)">
      <g id="Group_672" data-name="Group 672">
        <path id="Path_484" data-name="Path 484" class="cls-1" d="M54.522,1.842V0H50.268V1.842H45.5V4.968h1.054V16.782H58.241V4.968h1.054V1.842ZM51.251.983h2.287v.859H51.251V.983ZM57.258,15.8H47.532V4.968h9.726ZM58.312,3.984H46.478V2.826H58.312Z" transform="translate(-45.495)"/>
      </g>
    </g>
    <g id="Group_675" data-name="Group 675" transform="translate(49.546 7.217)">
      <g id="Group_674" data-name="Group 674">
        <rect id="Rectangle_2090" data-name="Rectangle 2090" class="cls-1" width="0.983" height="6.332"/>
      </g>
    </g>
    <g id="Group_677" data-name="Group 677" transform="translate(51.903 7.217)">
      <g id="Group_676" data-name="Group 676">
        <rect id="Rectangle_2091" data-name="Rectangle 2091" class="cls-1" width="0.983" height="6.332"/>
      </g>
    </g>
    <g id="Group_679" data-name="Group 679" transform="translate(54.26 7.217)">
      <g id="Group_678" data-name="Group 678">
        <rect id="Rectangle_2092" data-name="Rectangle 2092" class="cls-1" width="0.983" height="6.332"/>
      </g>
    </g>
  </g>
</svg>
