<svg xmlns="http://www.w3.org/2000/svg" viewBox="9908 -14200 35.5 35.5">
  <defs>
    <style>
      .cls-1 {
        fill: #3b5998;
      }

      .cls-2 {
        fill: #fff;
      }
    </style>
  </defs>
  <g id="facebook_1_" data-name="facebook (1)" transform="translate(9908 -14200)">
    <circle id="Ellipse_411" data-name="Ellipse 411" class="cls-1" cx="17.75" cy="17.75" r="17.75" transform="translate(0 0)"/>
    <path id="Path_507" data-name="Path 507" class="cls-2" d="M45.384,30.3h-2.34v8.573H39.5V30.3H37.812V27.29H39.5v-1.95a3.325,3.325,0,0,1,3.577-3.578l2.626.011V24.7H43.8a.722.722,0,0,0-.752.821v1.773h2.65Z" transform="translate(-23.848 -12.877)"/>
  </g>
</svg>
