<svg xmlns="http://www.w3.org/2000/svg" viewBox="9910 -13896 36 36">
  <defs>
    <style>
      .cls-1 {
        fill: #ee7808;
      }
    </style>
  </defs>
  <g id="odnoklassniki-logo_1_" data-name="odnoklassniki-logo (1)" transform="translate(9910 -13896)">
    <g id="Group_692" data-name="Group 692">
      <path id="Path_533" data-name="Path 533" class="cls-1" d="M43.566,29.863a3.1,3.1,0,1,0-3.122-3.072A3.081,3.081,0,0,0,43.566,29.863Z" transform="translate(-25.549 -14.945)"/>
      <path id="Path_534" data-name="Path 534" class="cls-1" d="M18,0A18,18,0,1,0,36,18,18,18,0,0,0,18,0Zm.026,5.474A6.34,6.34,0,1,1,11.665,11.8,6.343,6.343,0,0,1,18.026,5.474Zm7.1,15.171a7.62,7.62,0,0,1-2.745,1.774,12.907,12.907,0,0,1-3.116.7c.161.175.236.26.337.361,1.442,1.45,2.891,2.893,4.329,4.347a1.432,1.432,0,0,1,.322,1.686,1.707,1.707,0,0,1-1.6,1,1.56,1.56,0,0,1-1.014-.518c-1.089-1.1-2.2-2.171-3.264-3.287-.311-.325-.46-.263-.734.019-1.095,1.128-2.208,2.237-3.327,3.341a1.4,1.4,0,0,1-1.684.3,1.7,1.7,0,0,1-.984-1.57,1.57,1.57,0,0,1,.528-1.053q2.142-2.137,4.275-4.282c.095-.095.182-.2.32-.343a9.741,9.741,0,0,1-5.192-1.853,6.864,6.864,0,0,1-.548-.45,1.556,1.556,0,0,1,1.762-2.536,3.044,3.044,0,0,1,.43.254,8.513,8.513,0,0,0,9.437.086,2.559,2.559,0,0,1,.919-.475,1.442,1.442,0,0,1,1.652.66A1.4,1.4,0,0,1,25.127,20.645Z"/>
    </g>
  </g>
</svg>
