<svg xmlns="http://www.w3.org/2000/svg" viewBox="9910 -14364.8 35 35">
  <defs>
    <style>
      .cls-1 {
        fill: #7aa5da;
      }

      .cls-2 {
        fill: #fff;
      }

      .cls-3 {
        fill: #9ec2e5;
      }

      .cls-4 {
        fill: #d1d1d1;
      }

      .cls-5 {
        fill: #dadde0;
      }

      .cls-6 {
        fill: #adbcc9;
      }
    </style>
  </defs>
  <g id="telegram" transform="translate(9910 -14364.8)">
    <circle id="Ellipse_410" data-name="Ellipse 410" class="cls-1" cx="17.5" cy="17.5" r="17.5"/>
    <path id="Path_487" data-name="Path 487" class="cls-2" d="M128.212,132.62a.943.943,0,0,1,1.266,1.071l-3.129,14.956a.985.985,0,0,1-1.547.593l-4.723-3.467-2.408,2.458a.8.8,0,0,1-1.334-.319L114.6,142.4l-4.656-1.375a.668.668,0,0,1-.054-1.263Zm-2.3,3.319a.222.222,0,0,0-.264-.355l-10.05,6.233a.457.457,0,0,0-.2.524l1.371,6.018a.088.088,0,0,0,.171-.016l.306-4.587a.453.453,0,0,1,.151-.292Z" transform="translate(-101.982 -123.492)"/>
    <path id="Path_488" data-name="Path 488" class="cls-3" d="M206.342,176.382a.222.222,0,0,1,.264.355l-8.511,7.526a.454.454,0,0,0-.151.292l-.306,4.587a.088.088,0,0,1-.171.016l-1.371-6.018a.457.457,0,0,1,.2-.524Z" transform="translate(-182.672 -164.291)"/>
    <path id="Path_489" data-name="Path 489" class="cls-2" d="M116.827,148.422a.786.786,0,0,1-.489-.51L114.6,142.4l-4.656-1.375a.668.668,0,0,1-.054-1.263l18.323-7.139a.94.94,0,0,1,1.138.372.985.985,0,0,0-.15-.178l-12.43,10.148v.444l-.068-.05.068,2.8V148.4a.446.446,0,0,0,.055.021v0Z" transform="translate(-101.983 -123.493)"/>
    <g id="Group_680" data-name="Group 680" transform="translate(14.789 9.322)">
      <path id="Path_490" data-name="Path 490" class="cls-4" d="M229.07,136.99a1.025,1.025,0,0,1-.02.251L225.921,152.2a.985.985,0,0,1-1.547.593l-4.723-3.467-3.308-2.366v-.444l12.43-10.148a.984.984,0,0,1,.15.178l.025.04c.007.014.015.028.022.041s.014.028.02.042.013.029.019.045.011.027.015.042a.938.938,0,0,1,.035.143C229.064,136.926,229.068,136.957,229.07,136.99Z" transform="translate(-216.343 -136.364)"/>
      <path id="Path_491" data-name="Path 491" class="cls-4" d="M219.652,293.676l-2.408,2.458c-.02.02-.041.04-.062.058s-.042.033-.065.048h0a.835.835,0,0,1-.139.074.585.585,0,0,1-.073.025.8.8,0,0,1-.311.028c-.027,0-.054-.007-.08-.012l-.011,0-.078-.022a.106.106,0,0,1-.025-.009l-.055-2.265V291.31Z" transform="translate(-216.344 -280.718)"/>
    </g>
    <g id="Group_681" data-name="Group 681" transform="translate(15.038 24.796)">
      <path id="Path_492" data-name="Path 492" class="cls-5" d="M227.717,362.73c-.021.018-.042.034-.065.05h0C227.674,362.763,227.7,362.748,227.717,362.73Z" transform="translate(-227.128 -362.73)"/>
      <path id="Path_493" data-name="Path 493" class="cls-5" d="M227.636,363.437h0s0,0,0,0Z" transform="translate(-227.112 -363.389)"/>
      <path id="Path_494" data-name="Path 494" class="cls-5" d="M225.6,363.529a.831.831,0,0,0,.139-.074A.893.893,0,0,1,225.6,363.529Z" transform="translate(-225.217 -363.405)"/>
      <path id="Path_495" data-name="Path 495" class="cls-5" d="M219.981,364.93a.8.8,0,0,0,.311-.028.748.748,0,0,1-.227.034.68.68,0,0,1-.07,0A.03.03,0,0,1,219.981,364.93Z" transform="translate(-219.981 -364.754)"/>
    </g>
    <g id="Group_682" data-name="Group 682" transform="translate(14.981 24.966)">
      <path id="Path_496" data-name="Path 496" class="cls-2" d="M220.258,365.354a.678.678,0,0,1-.069,0A.678.678,0,0,0,220.258,365.354Z" transform="translate(-220.117 -365.341)"/>
      <path id="Path_497" data-name="Path 497" class="cls-2" d="M219.211,365.219a.03.03,0,0,0,.014,0,.455.455,0,0,1-.071-.009A.447.447,0,0,0,219.211,365.219Z" transform="translate(-219.154 -365.212)"/>
    </g>
    <g id="Group_683" data-name="Group 683" transform="translate(14.869 24.936)">
      <path id="Path_498" data-name="Path 498" class="cls-5" d="M218.889,365.156a.48.48,0,0,1-.057-.007l-.024,0C218.835,365.149,218.862,365.154,218.889,365.156Z" transform="translate(-218.721 -365.119)"/>
      <path id="Path_499" data-name="Path 499" class="cls-5" d="M217.516,364.782l.078.022-.032-.007a.041.041,0,0,1-.013,0A.173.173,0,0,1,217.516,364.782Z" transform="translate(-217.516 -364.782)"/>
    </g>
    <g id="Group_684" data-name="Group 684" transform="translate(14.849 24.93)">
      <path id="Path_500" data-name="Path 500" class="cls-2" d="M218.188,365.006l.032.007A.152.152,0,0,1,218.188,365.006Z" transform="translate(-218.122 -364.985)"/>
      <path id="Path_501" data-name="Path 501" class="cls-2" d="M217.243,364.7a.178.178,0,0,0,.033.011.311.311,0,0,1-.053-.017Z" transform="translate(-217.223 -364.696)"/>
    </g>
    <path id="Path_502" data-name="Path 502" class="cls-5" d="M217.179,364.654l-.02-.006s0,0,0,0v0A.107.107,0,0,0,217.179,364.654Z" transform="translate(-202.309 -339.718)"/>
    <path id="Path_503" data-name="Path 503" class="cls-4" d="M216.343,331.511l.055,2.265a.452.452,0,0,1-.055-.021Z" transform="translate(-201.554 -308.849)"/>
    <path id="Path_504" data-name="Path 504" class="cls-5" d="M215.411,290.634v2.748l-.068-2.8Z" transform="translate(-200.622 -270.721)"/>
    <path id="Path_505" data-name="Path 505" class="cls-6" d="M206.6,176.737l-8.511,7.526a.454.454,0,0,0-.151.292l-.306,4.587a.088.088,0,0,1-.172.016l-1.37-6.019a.457.457,0,0,1,.2-.524l10.05-6.233A.222.222,0,0,1,206.6,176.737Z" transform="translate(-182.671 -164.291)"/>
  </g>
</svg>
