<svg xmlns="http://www.w3.org/2000/svg" viewBox="-6957 -9663 24 24">
  <defs>
    <style>
      .cls-1 {
        fill: #35359c;
      }

      .cls-2 {
        fill: none;
      }
    </style>
  </defs>
  <g id="ic_cancel_black_24px" transform="translate(-6957 -9663)">
    <path id="Path_1106" data-name="Path 1106" class="cls-1" d="M12,2A10,10,0,1,0,22,12,9.991,9.991,0,0,0,12,2Zm5,13.59L15.59,17,12,13.41,8.41,17,7,15.59,10.59,12,7,8.41,8.41,7,12,10.59,15.59,7,17,8.41,13.41,12Z"/>
    <path id="Path_1107" data-name="Path 1107" class="cls-2" d="M0,0H24V24H0Z"/>
  </g>
</svg>
