<svg xmlns="http://www.w3.org/2000/svg" viewBox="6839 -19658 30 22">
  <defs>
    <style>
      .cls-1 {
        fill: #fff;
      }
    </style>
  </defs>
  <g id="Group_1216" data-name="Group 1216" transform="translate(6025 -20447)">
    <rect id="Rectangle_2610" data-name="Rectangle 2610" class="cls-1" width="30" height="2" transform="translate(814 806)"/>
    <rect id="Rectangle_2611" data-name="Rectangle 2611" class="cls-1" width="30" height="2" transform="translate(814 799)"/>
    <rect id="Rectangle_2612" data-name="Rectangle 2612" class="cls-1" width="30" height="2" transform="translate(814 792)"/>
    <circle id="Ellipse_483" data-name="Ellipse 483" class="cls-1" cx="4" cy="4" r="4" transform="translate(833 789)"/>
    <circle id="Ellipse_481" data-name="Ellipse 481" class="cls-1" cx="4" cy="4" r="4" transform="translate(833 803)"/>
    <circle id="Ellipse_482" data-name="Ellipse 482" class="cls-1" cx="4" cy="4" r="4" transform="translate(816 796)"/>
  </g>
</svg>
