<svg xmlns="http://www.w3.org/2000/svg" viewBox="6882 -19606.063 35 24.943">
  <defs>
    <style>
      .cls-1 {
        fill: #35359c;
      }
    </style>
  </defs>
  <g id="Group_1212" data-name="Group 1212" transform="translate(6005 -20446)">
    <g id="Group_1198" data-name="Group 1198" transform="translate(864 803.938)">
      <g id="Group_1197" data-name="Group 1197">
        <path id="Path_1197" data-name="Path 1197" class="cls-1" d="M35,73.56H0V98.5H35V73.56ZM32.949,95.427a1.027,1.027,0,0,1-1.025,1.025H3.076a1.027,1.027,0,0,1-1.025-1.025V80.7h30.9Zm0-16.781H2.051v-2.01a1.027,1.027,0,0,1,1.025-1.025H31.924a1.027,1.027,0,0,1,1.025,1.025Z" transform="translate(13 -37.561)"/>
      </g>
    </g>
    <g id="Group_1208" data-name="Group 1208" transform="translate(884.286 850.617)">
      <g id="Group_1191" data-name="Group 1191" transform="translate(0 0)">
        <path id="Path_1181" data-name="Path 1181" class="cls-1" d="M111.3,176.3a1.125,1.125,0,0,1-.23.38,1.285,1.285,0,0,1-.329.253,1.432,1.432,0,0,1-.38.141,1.832,1.832,0,0,1-.385.042,1.4,1.4,0,0,1-.643-.145,1.466,1.466,0,0,1-.483-.39,1.734,1.734,0,0,1-.3-.563,2.149,2.149,0,0,1-.1-.667,2.277,2.277,0,0,1,.089-.624,1.742,1.742,0,0,1,.272-.563,1.367,1.367,0,0,1,1.15-.559,2.141,2.141,0,0,1,.39.038,1.475,1.475,0,0,1,.39.131,1.264,1.264,0,0,1,.343.253,1.179,1.179,0,0,1,.249.4l1.4-1a2.6,2.6,0,0,0-1.056-1.056,3.706,3.706,0,0,0-3.112-.108,3.42,3.42,0,0,0-1.07.76,3.325,3.325,0,0,0-.9,2.263,3.4,3.4,0,0,0,.244,1.258,3.563,3.563,0,0,0,.69,1.108,3.437,3.437,0,0,0,1.061.784,3.089,3.089,0,0,0,1.357.3,3.845,3.845,0,0,0,.868-.1,3.681,3.681,0,0,0,.835-.3,2.9,2.9,0,0,0,.695-.488,1.9,1.9,0,0,0,.455-.657Z" transform="translate(-106.585 -171.98)"/>
      </g>
    </g>
    <g id="Group_1209" data-name="Group 1209" transform="translate(891.139 850.654)">
      <g id="Group_1193" data-name="Group 1193" transform="translate(0 0)">
        <path id="Path_1182" data-name="Path 1182" class="cls-1" d="M211.184,176.742a2.21,2.21,0,0,0,.7-.821,2.372,2.372,0,0,0,.253-1.084,2.225,2.225,0,0,0-.169-.84,2.457,2.457,0,0,0-.465-.742,2.34,2.34,0,0,0-.709-.526,2.026,2.026,0,0,0-.9-.2h-3.06v6.665h1.831v-2.046h.685l1.174,2.046h2.065Zm-1.047-1.38a.4.4,0,0,1-.315.188h-1.155v-1.427h1.108a.473.473,0,0,1,.338.183.755.755,0,0,1,.169.53A.84.84,0,0,1,210.137,175.362Z" transform="translate(-206.837 -172.527)"/>
      </g>
    </g>
    <g id="Group_1210" data-name="Group 1210" transform="translate(897.476 850.654)">
      <g id="Group_1195" data-name="Group 1195" transform="translate(0 0)">
        <path id="Path_1183" data-name="Path 1183" class="cls-1" d="M304.416,172.527l-1.446,3.136-1.436-3.136h-2v6.665h1.831v-3.511l1.117,2.469h.976l1.117-2.469v3.511h1.831v-6.665Z" transform="translate(-299.534 -172.527)"/>
      </g>
    </g>
  </g>
</svg>
