<?xml version="1.0" encoding="UTF-8"?>
<svg width="17px" height="14px" viewBox="0 0 17 14" version="1.1" xmlns="http://www.w3.org/2000/svg" xmlns:xlink="http://www.w3.org/1999/xlink">
    <!-- Generator: Sketch 42 (36781) - http://www.bohemiancoding.com/sketch -->
    <title>ic_typing</title>
    <desc>Created with Sketch.</desc>
    <defs>
        <rect id="path-1" x="3" y="4" width="15.8333333" height="13.1944444" rx="6.59722222"></rect>
        <mask id="mask-2" maskContentUnits="userSpaceOnUse" maskUnits="objectBoundingBox" x="0" y="0" width="15.8333333" height="13.1944444" fill="white">
            <use xlink:href="#path-1"></use>
        </mask>
    </defs>
    <g id="Build" stroke="none" stroke-width="1" fill="none" fill-rule="evenodd">
        <g id="Build.Empty" transform="translate(-1135.000000, -345.000000)">
            <g id="ic_typing" transform="translate(1132.000000, 341.000000)">
                <g transform="translate(0.500000, 0.333333)">
                    <rect id="Rectangle-4" x="0.5" y="0.666666667" width="20" height="20"></rect>
                    <use id="Rectangle" stroke="#000000" mask="url(#mask-2)" stroke-width="4" xlink:href="#path-1"></use>
                    <ellipse id="Oval-11" fill="#000000" cx="7.43287037" cy="11.6967593" rx="1.09953704" ry="1.09953704"></ellipse>
                    <ellipse id="Oval-11-Copy" fill="#000000" cx="10.6967593" cy="11.6967593" rx="1.09953704" ry="1.09953704"></ellipse>
                    <ellipse id="Oval-11-Copy-2" fill="#000000" cx="14.099537" cy="11.6967593" rx="1.09953704" ry="1.09953704"></ellipse>
                </g>
            </g>
        </g>
    </g>
</svg>