<svg xmlns="http://www.w3.org/2000/svg" viewBox="0 0 223.5 200">
  <defs>
    <style>
      .cls-1 {
        fill: #5e96dc;
      }

      .cls-2 {
        fill: none;
        stroke: #ccd0d2;
        stroke-width: 10px;
      }
    </style>
  </defs>
  <g id="Group_71" data-name="Group 71" transform="translate(-237.5 -130)">
    <g id="Group_70" data-name="Group 70" transform="translate(-85 -48)">
      <rect id="Rectangle_100" data-name="Rectangle 100" class="cls-1" width="81" height="44" transform="translate(465 178)"/>
      <rect id="Rectangle_101" data-name="Rectangle 101" class="cls-1" width="169" height="44" transform="translate(377 334)"/>
      <rect id="Rectangle_102" data-name="Rectangle 102" class="cls-1" width="130" height="44" transform="translate(416 256)"/>
      <line id="Line_40" data-name="Line 40" class="cls-2" x1="119" transform="translate(322.5 200.5)"/>
      <line id="Line_42" data-name="Line 42" class="cls-2" x1="32" transform="translate(322.5 356.5)"/>
      <line id="Line_43" data-name="Line 43" class="cls-2" x1="65" transform="translate(331.5 278.5)"/>
      <line id="Line_41" data-name="Line 41" class="cls-2" y1="164" transform="translate(327.5 196.5)"/>
    </g>
  </g>
</svg>
