<svg xmlns="http://www.w3.org/2000/svg" viewBox="9909 -14048 37 37">
  <defs>
    <style>
      .cls-1 {
        fill: #65a2d9;
      }

      .cls-2 {
        fill: #fff;
      }
    </style>
  </defs>
  <g id="skype.3svg" transform="translate(9909 -14048)">
    <circle id="Ellipse_412" data-name="Ellipse 412" class="cls-1" cx="18.5" cy="18.5" r="18.5"/>
    <g id="Group_686" data-name="Group 686" transform="translate(7.911 9.256)">
      <path id="Path_509" data-name="Path 509" class="cls-2" d="M129.792,138.945a2.721,2.721,0,0,1-.491-1.6v-.01a9.247,9.247,0,0,0-12.422-8.682,2.725,2.725,0,0,1-1.673.079,4.514,4.514,0,0,0-4.884,6.988,2.724,2.724,0,0,1,.491,1.605v.01a9.247,9.247,0,0,0,12.422,8.682,2.726,2.726,0,0,1,1.673-.079,4.514,4.514,0,0,0,4.884-6.988Zm-9.4-3.272c1.864.443,4.68,1.113,4.68,4.216a3.381,3.381,0,0,1-2.119,3.283,7.7,7.7,0,0,1-3.03.477,6.688,6.688,0,0,1-4.846-2.37,1.39,1.39,0,1,1,2.174-1.734,4.124,4.124,0,0,0,2.672,1.323c1.883.06,2.313-.5,2.369-.979.068-.584-.452-1.013-2.543-1.51-1.773-.421-4.452-1.059-4.452-3.916,0-.89.362-3.793,5.019-3.793a6.3,6.3,0,0,1,4.749,2.414,1.39,1.39,0,0,1-2.234,1.656,4.177,4.177,0,0,0-2.515-1.289c-1.126-.107-2.238.3-2.238.9,0,.636.32.849,2.315,1.324Z" transform="translate(-109.467 -128.086)"/>
      <path id="Path_510" data-name="Path 510" class="cls-2" d="M260.9,273.67c.062-.533-.366-.937-2.03-1.381v2.364C260.471,274.639,260.852,274.119,260.9,273.67Z" transform="translate(-248.077 -261.868)"/>
    </g>
    <path id="Path_512" data-name="Path 512" class="cls-2" d="M228.649,203c0,.621.306.84,2.184,1.293v-2.2C229.726,202.007,228.649,202.409,228.649,203Z" transform="translate(-212.126 -187.48)"/>
  </g>
</svg>
