<svg xmlns="http://www.w3.org/2000/svg" viewBox="340 747 480.208 352.001">
  <defs>
    <style>
      .cls-1 {
        fill: #6c7588;
      }
    </style>
  </defs>
  <g id="speech-bubble" transform="translate(340 682.896)">
    <g id="Group_2" data-name="Group 2">
      <g id="Group_1" data-name="Group 1">
        <path id="Path_5" data-name="Path 5" class="cls-1" d="M328,64.1H152a152,152,0,0,0,0,304h78.112l94.312,47.2A8.072,8.072,0,0,0,336,408.1V367.9a152,152,0,0,0-8-303.8Zm0,288a8,8,0,0,0-8,8V395.16L235.576,352.9a7.99,7.99,0,0,0-3.576-.8H152a136,136,0,0,1,0-272H328a136,136,0,0,1,0,272Z"/>
        <path id="Path_6" data-name="Path 6" class="cls-1" d="M336,264.1H144a8,8,0,0,0,0,16H336a8,8,0,0,0,0-16Z"/>
        <path id="Path_7" data-name="Path 7" class="cls-1" d="M336,168.1H144a8,8,0,0,0,0,16H336a8,8,0,0,0,0-16Z"/>
      </g>
    </g>
  </g>
</svg>
