<svg xmlns="http://www.w3.org/2000/svg" viewBox="9910 -13971.9 35.9 35.9">
  <defs>
    <style>
      .cls-1 {
        fill: #6f3faa;
      }

      .cls-2 {
        fill: #fff;
      }

      .cls-3 {
        fill: #d1d1d1;
      }
    </style>
  </defs>
  <g id="viber" transform="translate(9910 -13971.9)">
    <circle id="Ellipse_413" data-name="Ellipse 413" class="cls-1" cx="17.95" cy="17.95" r="17.95"/>
    <g id="Group_687" data-name="Group 687" transform="translate(8.01 7.676)">
      <path id="Path_514" data-name="Path 514" class="cls-2" d="M133.67,114.409l-.006-.024a6.854,6.854,0,0,0-4.628-4.452l-.022,0a25.716,25.716,0,0,0-9.679,0l-.023,0a6.857,6.857,0,0,0-4.628,4.452l-.005.024a18.947,18.947,0,0,0,0,8.161l.005.024a6.913,6.913,0,0,0,4.373,4.387v2.164a.87.87,0,0,0,1.5.6l2.193-2.279c.476.027.952.041,1.427.041a25.805,25.805,0,0,0,4.84-.459l.022,0a6.854,6.854,0,0,0,4.628-4.452l.006-.024A18.948,18.948,0,0,0,133.67,114.409Zm-1.735,7.769a5.184,5.184,0,0,1-3.266,3.128,23.968,23.968,0,0,1-5.149.416.121.121,0,0,0-.091.037l-1.6,1.644-1.7,1.748a.2.2,0,0,1-.343-.138v-3.585a.124.124,0,0,0-.1-.121h0a5.185,5.185,0,0,1-3.266-3.128,17.192,17.192,0,0,1,0-7.376,5.185,5.185,0,0,1,3.266-3.128,23.95,23.95,0,0,1,8.988,0,5.183,5.183,0,0,1,3.266,3.128A17.174,17.174,0,0,1,131.934,122.178Z" transform="translate(-114.234 -109.468)"/>
      <path id="Path_515" data-name="Path 515" class="cls-2" d="M190.2,183.343c-.2-.061-.392-.1-.569-.175a12.929,12.929,0,0,1-4.873-3.257,12.643,12.643,0,0,1-1.864-2.852c-.239-.486-.441-.991-.646-1.493a1.3,1.3,0,0,1,.379-1.276,3,3,0,0,1,1-.754.644.644,0,0,1,.806.191,10.389,10.389,0,0,1,1.247,1.745.831.831,0,0,1-.233,1.125c-.094.064-.18.139-.268.212a.88.88,0,0,0-.2.213.585.585,0,0,0-.039.513,4.647,4.647,0,0,0,2.61,2.89,1.329,1.329,0,0,0,.669.162c.409-.048.541-.5.828-.73a.78.78,0,0,1,.939-.041c.3.191.594.4.885.6a10.1,10.1,0,0,1,.833.634.661.661,0,0,1,.2.818,2.765,2.765,0,0,1-1.188,1.309,2.872,2.872,0,0,1-.514.163C190,183.282,190.377,183.29,190.2,183.343Z" transform="translate(-177.425 -168.979)"/>
      <path id="Path_516" data-name="Path 516" class="cls-2" d="M250.321,165.413a4.888,4.888,0,0,1,4.805,4.042c.072.405.1.82.13,1.231a.289.289,0,0,1-.271.34c-.193,0-.28-.159-.292-.332-.025-.342-.042-.686-.089-1.026a4.3,4.3,0,0,0-3.462-3.593c-.268-.048-.543-.06-.815-.089-.172-.018-.4-.028-.435-.242a.294.294,0,0,1,.29-.331c.046,0,.093,0,.139,0C252.727,165.481,250.275,165.413,250.321,165.413Z" transform="translate(-240.376 -161.49)"/>
      <path id="Path_517" data-name="Path 517" class="cls-2" d="M259.836,187.207a1.094,1.094,0,0,1-.024.167.273.273,0,0,1-.514.028.726.726,0,0,1-.029-.232,2.913,2.913,0,0,0-.369-1.462,2.721,2.721,0,0,0-1.141-1.07,3.279,3.279,0,0,0-.909-.279c-.137-.023-.276-.036-.413-.056a.262.262,0,0,1-.248-.294.259.259,0,0,1,.288-.256,3.782,3.782,0,0,1,1.576.411,3.188,3.188,0,0,1,1.735,2.477c.008.051.02.1.023.151.009.125.015.25.025.415C259.832,187.237,259.826,187.042,259.836,187.207Z" transform="translate(-246.235 -178.544)"/>
      <path id="Path_518" data-name="Path 518" class="cls-2" d="M263.187,204.625a.3.3,0,0,1-.33-.292,3.024,3.024,0,0,0-.057-.384,1.081,1.081,0,0,0-.4-.626,1.046,1.046,0,0,0-.325-.157c-.148-.043-.3-.031-.448-.067a.275.275,0,0,1-.223-.319.289.289,0,0,1,.3-.232A1.654,1.654,0,0,1,263.4,204.2a.761.761,0,0,1,0,.234.239.239,0,0,1-.215.2C262.985,204.629,263.278,204.619,263.187,204.625Z" transform="translate(-251.082 -196.021)"/>
    </g>
    <path id="Path_519" data-name="Path 519" class="cls-3" d="M158.415,138.778l-.006-.024a6.383,6.383,0,0,0-2.066-3.079l-1.35,1.2a4.854,4.854,0,0,1,1.686,2.3,17.173,17.173,0,0,1,0,7.376,5.184,5.184,0,0,1-3.266,3.128,23.968,23.968,0,0,1-5.149.416.121.121,0,0,0-.091.037l-1.6,1.644-1.7,1.748a.2.2,0,0,1-.343-.138V149.8a.124.124,0,0,0-.1-.121h0a4.853,4.853,0,0,1-2.246-1.446l-1.334,1.182a6.77,6.77,0,0,0,2.957,1.939v2.164a.87.87,0,0,0,1.5.6l2.193-2.279c.476.027.951.041,1.427.041a25.805,25.805,0,0,0,4.84-.459l.022,0a6.854,6.854,0,0,0,4.628-4.452l.006-.024A18.948,18.948,0,0,0,158.415,138.778Z" transform="translate(-130.969 -126.162)"/>
    <path id="Path_520" data-name="Path 520" class="cls-2" d="M295.664,313.756c.174-.054-.2-.061,0,0Z" transform="translate(-274.876 -291.717)"/>
    <path id="Path_521" data-name="Path 521" class="cls-3" d="M224.476,253.29a10.156,10.156,0,0,0-.833-.634c-.291-.207-.583-.412-.885-.6a.78.78,0,0,0-.939.041c-.286.234-.419.683-.828.73a1.33,1.33,0,0,1-.669-.162,4.327,4.327,0,0,1-1.9-1.512l-.993.88c.034.039.066.079.1.118a12.931,12.931,0,0,0,4.873,3.257c.177.074.369.115.569.175-.2-.061.174-.054,0,0a2.868,2.868,0,0,0,.514-.164,2.764,2.764,0,0,0,1.188-1.309A.66.66,0,0,0,224.476,253.29Z" transform="translate(-202.184 -233.541)"/>
    <g id="Group_688" data-name="Group 688" transform="translate(17.954 11.599)">
      <path id="Path_522" data-name="Path 522" class="cls-2" d="M256.07,165.427h0Z" transform="translate(-256.064 -165.427)"/>
      <path id="Path_523" data-name="Path 523" class="cls-2" d="M256.072,165.426h.006C256.212,165.431,258.383,165.491,256.072,165.426Z" transform="translate(-256.071 -165.426)"/>
    </g>
    <g id="Group_689" data-name="Group 689" transform="translate(20.123 13.03)">
      <path id="Path_524" data-name="Path 524" class="cls-3" d="M299.671,185.837l-.423.375a4.248,4.248,0,0,1,1.255,2.449c.047.34.064.683.089,1.026.013.173.1.334.292.332a.289.289,0,0,0,.271-.34c-.032-.411-.058-.826-.13-1.231A4.83,4.83,0,0,0,299.671,185.837Z" transform="translate(-298.389 -185.837)"/>
      <path id="Path_525" data-name="Path 525" class="cls-3" d="M288.43,198.694a3.211,3.211,0,0,0-1.017-1.979l-.422.374a2.742,2.742,0,0,1,.553.672,2.914,2.914,0,0,1,.369,1.462.726.726,0,0,0,.029.233.273.273,0,0,0,.514-.028,1.1,1.1,0,0,0,.024-.167c0,.03-.01-.165,0,0-.01-.165-.016-.29-.025-.415C288.45,198.794,288.438,198.744,288.43,198.694Z" transform="translate(-286.991 -195.952)"/>
    </g>
    <g id="Group_690" data-name="Group 690" transform="translate(20.042 16.271)">
      <path id="Path_526" data-name="Path 526" class="cls-2" d="M308.142,232.129c-.01-.165,0,.03,0,0Z" transform="translate(-306.574 -232.061)"/>
      <path id="Path_527" data-name="Path 527" class="cls-2" d="M286.531,232.159l.009,0h-.009Z" transform="translate(-286.459 -232.15)"/>
      <path id="Path_528" data-name="Path 528" class="cls-2" d="M285.914,232.168h-.026C285.845,232.168,285.8,232.171,285.914,232.168Z" transform="translate(-285.842 -232.16)"/>
      <path id="Path_529" data-name="Path 529" class="cls-2" d="M286.881,232.157l-.009,0C286.9,232.158,286.894,232.157,286.881,232.157Z" transform="translate(-286.8 -232.15)"/>
    </g>
    <path id="Path_530" data-name="Path 530" class="cls-3" d="M275.116,207.525l-.43.381c.024.014.047.029.069.046a1.081,1.081,0,0,1,.4.626,3.048,3.048,0,0,1,.057.384.294.294,0,0,0,.3.291h.035a.239.239,0,0,0,.206-.195.762.762,0,0,0,0-.234A1.706,1.706,0,0,0,275.116,207.525Z" transform="translate(-255.426 -192.974)"/>
  </g>
</svg>
