<svg xmlns="http://www.w3.org/2000/svg" viewBox="6841.977 -19600.055 18.022 24.785">
  <defs>
    <style>
      .cls-1 {
        fill: #fff;
      }

      .cls-2 {
        fill: none;
        stroke: #fff;
        stroke-linecap: round;
        stroke-linejoin: round;
        stroke-width: 2px;
        fill-rule: evenodd;
      }
    </style>
  </defs>
  <g id="_13516257901962882762Fraction_with_Variables" data-name="13516257901962882762Fraction with Variables" transform="translate(6831.738 -19602.975)">
    <path id="path833" class="cls-1" d="M30.495,24.742l2.094-2.256-1.27-1.37q-.462-.493-.624-.67a1.752,1.752,0,0,1-.239-.362.986.986,0,0,1-.085-.416,1.242,1.242,0,0,1,.362-.916,1.127,1.127,0,0,1,.816-.362,1.611,1.611,0,0,1,.693.123,1.566,1.566,0,0,1,.524.477l1.309,1.64,1.309-1.64a1.736,1.736,0,0,1,.531-.477,1.558,1.558,0,0,1,.685-.123,1.138,1.138,0,0,1,.816.354,1.235,1.235,0,0,1,.362.924.988.988,0,0,1-.085.416,1.62,1.62,0,0,1-.246.362q-.154.177-.616.67l-1.27,1.37,2.094,2.256a2.327,2.327,0,0,1,.339.47,1.125,1.125,0,0,1,.146.585,1.2,1.2,0,0,1-.362.908,1.257,1.257,0,0,1-.893.339,1.021,1.021,0,0,1-.57-.146,3.207,3.207,0,0,1-.523-.485l-1.717-2.032-1.717,2.032a2.751,2.751,0,0,1-.508.47,1.018,1.018,0,0,1-.585.162,1.257,1.257,0,0,1-.893-.339,1.2,1.2,0,0,1-.362-.908,1.181,1.181,0,0,1,.123-.562A3,3,0,0,1,30.495,24.742Z" transform="translate(-19.747 -15.471)"/>
    <path id="path832" class="cls-1" d="M29.987,73.429l.824-1.871-2.094-5.051a5.724,5.724,0,0,1-.523-1.547,1.06,1.06,0,0,1,.354-.831,1.247,1.247,0,0,1,.847-.316,1.262,1.262,0,0,1,1.255.932l1.455,3.8,1.37-3.387a3.868,3.868,0,0,1,.585-1.009.961.961,0,0,1,.754-.331,1.244,1.244,0,0,1,.908.339,1.183,1.183,0,0,1,.354.908,2.976,2.976,0,0,1-.3,1.085l-3.642,8.577a3.206,3.206,0,0,1-.516.9,1.039,1.039,0,0,1-.824.285A1.146,1.146,0,0,1,29.579,74.8a1.853,1.853,0,0,1,.077-.554Q29.741,74,29.987,73.429Z" transform="translate(-8.479 -48.203)"/>
    <path id="path843" class="cls-2" d="M14.742,27.407l16.022-9.435" transform="translate(-3.503 -9.337)"/>
  </g>
</svg>
