<svg xmlns="http://www.w3.org/2000/svg" viewBox="6873 -19617.063 35 24.943">
  <defs>
    <style>
      .cls-1 {
        fill: #fff;
      }
    </style>
  </defs>
  <g id="Group_1208" data-name="Group 1208" transform="translate(2578 -2907.063)">
    <g id="api" transform="translate(4295 -16710)">
      <g id="Group_1198" data-name="Group 1198" transform="translate(0 0)">
        <g id="Group_1197" data-name="Group 1197">
          <path id="Path_1184" data-name="Path 1184" class="cls-1" d="M35,73.56H0V98.5H35V73.56ZM32.949,95.427a1.027,1.027,0,0,1-1.025,1.025H3.076a1.027,1.027,0,0,1-1.025-1.025V80.7h30.9Zm0-16.781H2.051v-2.01a1.027,1.027,0,0,1,1.025-1.025H31.924a1.027,1.027,0,0,1,1.025,1.025Z" transform="translate(0 -73.56)"/>
        </g>
      </g>
      <g id="Group_1200" data-name="Group 1200" transform="translate(8.424 9.823)">
        <g id="Group_1199" data-name="Group 1199">
          <path id="Path_1185" data-name="Path 1185" class="cls-1" d="M126.545,217.264a3.32,3.32,0,0,0-3.316,3.316v4.475a1.025,1.025,0,1,0,2.051,0v-1.944h2.531v1.944a1.025,1.025,0,1,0,2.051,0V220.58A3.32,3.32,0,0,0,126.545,217.264Zm1.265,3.8H125.28v-.48h0a1.265,1.265,0,1,1,2.531,0Z" transform="translate(-123.229 -217.264)"/>
        </g>
      </g>
      <g id="Group_1202" data-name="Group 1202" transform="translate(16.475 9.823)">
        <g id="Group_1201" data-name="Group 1201">
          <path id="Path_1186" data-name="Path 1186" class="cls-1" d="M244.709,217.264h-2.683A1.025,1.025,0,0,0,241,218.289v6.766a1.025,1.025,0,1,0,2.051,0v-1.944h1.658a2.924,2.924,0,1,0,0-5.847Zm0,3.8h-1.658v-1.746h1.658a.873.873,0,1,1,0,1.746Z" transform="translate(-241 -217.264)"/>
        </g>
      </g>
      <g id="Group_1204" data-name="Group 1204" transform="translate(24.525 9.823)">
        <g id="Group_1203" data-name="Group 1203">
          <path id="Path_1187" data-name="Path 1187" class="cls-1" d="M359.8,217.264a1.025,1.025,0,0,0-1.025,1.025v6.766a1.025,1.025,0,1,0,2.051,0v-6.766A1.025,1.025,0,0,0,359.8,217.264Z" transform="translate(-358.771 -217.264)"/>
        </g>
      </g>
    </g>
  </g>
</svg>
