<svg xmlns="http://www.w3.org/2000/svg" viewBox="-6828 -9607 24 24">
  <defs>
    <style>
      .cls-1 {
        fill: none;
      }

      .cls-2 {
        fill: #fff;
      }
    </style>
  </defs>
  <g id="ic_people_white_24px" transform="translate(-6828 -9607)">
    <path id="Path_1108" data-name="Path 1108" class="cls-1" d="M0,0H24V24H0Z"/>
    <path id="Path_1109" data-name="Path 1109" class="cls-2" d="M16,11a3,3,0,1,0-3-3A2.987,2.987,0,0,0,16,11ZM8,11A3,3,0,1,0,5,8,2.987,2.987,0,0,0,8,11Zm0,2c-2.33,0-7,1.17-7,3.5V19H15V16.5C15,14.17,10.33,13,8,13Zm8,0c-.29,0-.62.02-.97.05A4.22,4.22,0,0,1,17,16.5V19h6V16.5C23,14.17,18.33,13,16,13Z"/>
  </g>
</svg>
