<svg xmlns="http://www.w3.org/2000/svg" viewBox="0 0 188.15 188.15">
  <defs>
    <style>
      .cls-1 {
        fill: #5e96dc;
      }

      .cls-2 {
        fill: #3e4347;
      }

      .cls-3 {
        fill: #ffd93b;
      }

      .cls-4 {
        fill: #65b1ef;
      }

      .cls-5 {
        fill: #59a5e0;
      }

      .cls-6 {
        fill: #5a5f63;
      }

      .cls-7 {
        fill: #dee4e9;
      }

      .cls-8 {
        fill: #d3d9dd;
      }

      .cls-9 {
        fill: #e9eff4;
      }

      .cls-10 {
        fill: #fff;
      }
    </style>
  </defs>
  <g id="Group_3" data-name="Group 3" transform="translate(-783 -97)">
    <circle id="Ellipse_488" data-name="Ellipse 488" class="cls-1" cx="94.075" cy="94.075" r="94.075" transform="translate(783 97)"/>
    <g id="robot" transform="translate(829.856 143)">
      <path id="Path_1" data-name="Path 1" class="cls-2" d="M15.367,73.031H8.736L11.115,28.16h1.873Z" transform="translate(-6.995 -22.927)"/>
      <ellipse id="Ellipse_1" data-name="Ellipse 1" class="cls-3" cx="4.136" cy="4.124" rx="4.136" ry="4.124" transform="translate(0.926 0)"/>
      <ellipse id="Ellipse_2" data-name="Ellipse 2" class="cls-4" cx="4.136" cy="4.124" rx="4.136" ry="4.124" transform="translate(0.926 0)"/>
      <path id="Path_2" data-name="Path 2" class="cls-5" d="M12.166,7.828A4.154,4.154,0,0,1,4.256,6.1,4.022,4.022,0,0,1,6.605,2.416,3.909,3.909,0,0,0,6.189,4.17a4.125,4.125,0,0,0,4.163,4.1A3.725,3.725,0,0,0,12.166,7.828Z" transform="translate(-3.348 -1.967)"/>
      <g id="Group_1" data-name="Group 1" transform="translate(0.144 42.578)">
        <path id="Path_3" data-name="Path 3" class="cls-6" d="M468.869,231.513v16.117a2.424,2.424,0,0,1-2.438,2.409h-4.936a2.424,2.424,0,0,1-2.438-2.409V231.513a2.424,2.424,0,0,1,2.438-2.409h4.936A2.424,2.424,0,0,1,468.869,231.513Z" transform="translate(-373.768 -229.104)"/>
        <path id="Path_4" data-name="Path 4" class="cls-6" d="M9.957,231.513v16.117a2.424,2.424,0,0,1-2.438,2.409H2.582a2.424,2.424,0,0,1-2.438-2.409V231.513A2.424,2.424,0,0,1,2.582,229.1H7.518A2.424,2.424,0,0,1,9.957,231.513Z" transform="translate(-0.144 -229.104)"/>
      </g>
      <circle id="Ellipse_3" data-name="Ellipse 3" class="cls-7" cx="42.109" cy="42.109" r="42.109" transform="translate(5.586 10.937)"/>
      <path id="Path_5" data-name="Path 5" class="cls-8" d="M154.518,141.834a42.111,42.111,0,0,1-74.886,26.438,42.112,42.112,0,0,0,59.215-59.215A42.072,42.072,0,0,1,154.518,141.834Z" transform="translate(-64.715 -88.788)"/>
      <path id="Path_6" data-name="Path 6" class="cls-9" d="M128.237,58.864A41.934,41.934,0,0,0,99.072,70.645V105.3c0,15.834,12.858,22.2,28.722,22.2s28.722-6.369,28.722-22.2V69.836A41.919,41.919,0,0,0,128.237,58.864Z" transform="translate(-80.542 -47.924)"/>
      <path id="Path_7" data-name="Path 7" class="cls-10" d="M152.61,184.019a10.3,10.3,0,1,1-10.292-10.291A10.3,10.3,0,0,1,152.61,184.019Z" transform="translate(-107.351 -141.441)"/>
      <path id="Path_8" data-name="Path 8" class="cls-2" d="M171.469,208.457a4.726,4.726,0,1,1-4.713-4.713A4.714,4.714,0,0,1,171.469,208.457Z" transform="translate(-131.788 -165.879)"/>
      <g id="Group_2" data-name="Group 2" transform="translate(35.233 32.287)">
        <ellipse id="Ellipse_4" data-name="Ellipse 4" class="cls-10" cx="1.359" cy="0.794" rx="1.359" ry="0.794" transform="translate(1.922 10.015) rotate(-135)"/>
        <path id="Path_9" data-name="Path 9" class="cls-10" d="M289.714,184.019a10.3,10.3,0,1,1-10.292-10.291A10.3,10.3,0,0,1,289.714,184.019Z" transform="translate(-254.208 -173.728)"/>
      </g>
      <path id="Path_10" data-name="Path 10" class="cls-2" d="M308.557,208.457a4.726,4.726,0,1,1-4.713-4.713A4.714,4.714,0,0,1,308.557,208.457Z" transform="translate(-243.399 -165.879)"/>
      <ellipse id="Ellipse_5" data-name="Ellipse 5" class="cls-10" cx="1.359" cy="0.794" rx="1.359" ry="0.794" transform="translate(62.631 42.304) rotate(-135)"/>
      <path id="Path_11" data-name="Path 11" class="cls-2" d="M194.486,323.938a22.242,22.242,0,0,1-35.534,0A1.71,1.71,0,0,1,161,321.38a41.944,41.944,0,0,0,31.43,0A1.71,1.71,0,0,1,194.486,323.938Z" transform="translate(-129.025 -261.55)"/>
    </g>
  </g>
</svg>
