<svg xmlns="http://www.w3.org/2000/svg" xmlns:xlink="http://www.w3.org/1999/xlink" viewBox="0 0 188.148 188.148">
  <defs>
    <style>
      .cls-1 {
        fill: #5e96dc;
      }

      .cls-2 {
        clip-path: url(#clip-path);
      }

      .cls-3 {
        fill: #ecc19c;
      }

      .cls-4 {
        fill: #168ef7;
      }

      .cls-5 {
        fill: #494846;
      }
    </style>
    <clipPath id="clip-path">
      <circle id="Ellipse_484" data-name="Ellipse 484" cx="94.074" cy="94.074" r="94.074" transform="translate(0 0.001)"/>
    </clipPath>
  </defs>
  <g id="user" transform="translate(0 -0.002)">
    <g id="Group_1117" data-name="Group 1117">
      <circle id="Ellipse_483" data-name="Ellipse 483" class="cls-1" cx="94.074" cy="94.074" r="94.074" transform="translate(0 0.001)"/>
      <g id="Group_1113" data-name="Group 1113" class="cls-2">
        <path id="Path_1063" data-name="Path 1063" class="cls-3" d="M126.708,153.946h-.02a52.866,52.866,0,0,0-6.429-4.159.61.61,0,0,0-.191-.1,34.5,34.5,0,0,1-17.857-30.239l-16.121-.077a34.5,34.5,0,0,1-18.01,30.315.059.059,0,0,0-.038.019,56.2,56.2,0,0,0-6.506,4.159,54.42,54.42,0,0,0-22,43.766h109.07A54.4,54.4,0,0,0,126.708,153.946Z"/>
      </g>
      <g id="Group_1114" data-name="Group 1114" class="cls-2">
        <path id="Path_1064" data-name="Path 1064" class="cls-4" d="M148.609,197.629H39.538a54.42,54.42,0,0,1,22-43.766,56.27,56.27,0,0,1,6.5-4.159.062.062,0,0,1,.039-.019,33.861,33.861,0,0,0,4.979-3.339,29.415,29.415,0,0,0,42.087.019,31.849,31.849,0,0,0,4.922,3.32.6.6,0,0,1,.191.1,52.868,52.868,0,0,1,6.429,4.159h.02A54.4,54.4,0,0,1,148.609,197.629Z"/>
      </g>
      <g id="Group_1115" data-name="Group 1115" class="cls-2">
        <path id="Path_1065" data-name="Path 1065" class="cls-3" d="M52.217,38.091V80.927c0,28.976,25.437,52.465,41.858,52.465s41.858-23.489,41.858-52.465V38.091Z"/>
      </g>
      <g id="Group_1116" data-name="Group 1116" class="cls-2">
        <path id="Path_1066" data-name="Path 1066" class="cls-5" d="M129.114,30.207A49.158,49.158,0,0,0,90.651,11.481c-27.521,0-49.81,22.972-49.81,51.3a51.812,51.812,0,0,0,16.274,37.932A57.784,57.784,0,0,1,53.1,79.334a55.374,55.374,0,0,1,9.957-32.246c6.6,2.932,17.286,3.993,29.011,2.376,11.625-1.592,21.531-5.433,27.116-10.007,10.185,9,16.806,23.5,16.806,39.877a57,57,0,0,1-4.8,23.2c9.83-4.069,17.058-18.574,17.058-35.835C148.243,48.225,139.954,32.987,129.114,30.207Z"/>
      </g>
    </g>
  </g>
</svg>
